%YAML 1.1
%TAG !u! tag:unity3d.com,2011:
--- !u!74 &7400000
AnimationClip:
  m_ObjectHideFlags: 0
  m_CorrespondingSourceObject: {fileID: 0}
  m_PrefabInstance: {fileID: 0}
  m_PrefabAsset: {fileID: 0}
  m_Name: player_run_left
  serializedVersion: 6
  m_Legacy: 0
  m_Compressed: 0
  m_UseHighQualityCurve: 1
  m_RotationCurves: []
  m_CompressedRotationCurves: []
  m_EulerCurves: []
  m_PositionCurves: []
  m_ScaleCurves: []
  m_FloatCurves: []
  m_PPtrCurves:
  - curve:
    - time: 0
      value: {fileID: 21300000, guid: df401aa84da4b8e4a83d1bb9a275205e, type: 3}
    - time: 0.033333335
      value: {fileID: 21300002, guid: df401aa84da4b8e4a83d1bb9a275205e, type: 3}
    - time: 0.083333336
      value: {fileID: 21300004, guid: df401aa84da4b8e4a83d1bb9a275205e, type: 3}
    - time: 0.13333334
      value: {fileID: 21300006, guid: df401aa84da4b8e4a83d1bb9a275205e, type: 3}
    - time: 0.18333334
      value: {fileID: 21300008, guid: df401aa84da4b8e4a83d1bb9a275205e, type: 3}
    - time: 0.23333333
      value: {fileID: 21300010, guid: df401aa84da4b8e4a83d1bb9a275205e, type: 3}
    - time: 0.28333333
      value: {fileID: 21300012, guid: df401aa84da4b8e4a83d1bb9a275205e, type: 3}
    - time: 0.33333334
      value: {fileID: 21300014, guid: df401aa84da4b8e4a83d1bb9a275205e, type: 3}
    - time: 0.38333333
      value: {fileID: 21300016, guid: df401aa84da4b8e4a83d1bb9a275205e, type: 3}
    - time: 0.43333334
      value: {fileID: 21300018, guid: df401aa84da4b8e4a83d1bb9a275205e, type: 3}
    - time: 0.48333332
      value: {fileID: 21300020, guid: df401aa84da4b8e4a83d1bb9a275205e, type: 3}
    - time: 0.53333336
      value: {fileID: 21300022, guid: df401aa84da4b8e4a83d1bb9a275205e, type: 3}
    - time: 0.5833333
      value: {fileID: 21300024, guid: df401aa84da4b8e4a83d1bb9a275205e, type: 3}
    - time: 0.6333333
      value: {fileID: 21300026, guid: df401aa84da4b8e4a83d1bb9a275205e, type: 3}
    - time: 0.68333334
      value: {fileID: 21300028, guid: df401aa84da4b8e4a83d1bb9a275205e, type: 3}
    - time: 0.73333335
      value: {fileID: 21300030, guid: df401aa84da4b8e4a83d1bb9a275205e, type: 3}
    - time: 0.78333336
      value: {fileID: 21300032, guid: df401aa84da4b8e4a83d1bb9a275205e, type: 3}
    - time: 0.81666666
      value: {fileID: 21300034, guid: df401aa84da4b8e4a83d1bb9a275205e, type: 3}
    attribute: m_Sprite
    path: 
    classID: 212
    script: {fileID: 0}
  m_SampleRate: 60
  m_WrapMode: 0
  m_Bounds:
    m_Center: {x: 0, y: 0, z: 0}
    m_Extent: {x: 0, y: 0, z: 0}
  m_ClipBindingConstant:
    genericBindings:
    - serializedVersion: 2
      path: 0
      attribute: 0
      script: {fileID: 0}
      typeID: 212
      customType: 23
      isPPtrCurve: 1
    pptrCurveMapping:
    - {fileID: 21300000, guid: df401aa84da4b8e4a83d1bb9a275205e, type: 3}
    - {fileID: 21300002, guid: df401aa84da4b8e4a83d1bb9a275205e, type: 3}
    - {fileID: 21300004, guid: df401aa84da4b8e4a83d1bb9a275205e, type: 3}
    - {fileID: 21300006, guid: df401aa84da4b8e4a83d1bb9a275205e, type: 3}
    - {fileID: 21300008, guid: df401aa84da4b8e4a83d1bb9a275205e, type: 3}
    - {fileID: 21300010, guid: df401aa84da4b8e4a83d1bb9a275205e, type: 3}
    - {fileID: 21300012, guid: df401aa84da4b8e4a83d1bb9a275205e, type: 3}
    - {fileID: 21300014, guid: df401aa84da4b8e4a83d1bb9a275205e, type: 3}
    - {fileID: 21300016, guid: df401aa84da4b8e4a83d1bb9a275205e, type: 3}
    - {fileID: 21300018, guid: df401aa84da4b8e4a83d1bb9a275205e, type: 3}
    - {fileID: 21300020, guid: df401aa84da4b8e4a83d1bb9a275205e, type: 3}
    - {fileID: 21300022, guid: df401aa84da4b8e4a83d1bb9a275205e, type: 3}
    - {fileID: 21300024, guid: df401aa84da4b8e4a83d1bb9a275205e, type: 3}
    - {fileID: 21300026, guid: df401aa84da4b8e4a83d1bb9a275205e, type: 3}
    - {fileID: 21300028, guid: df401aa84da4b8e4a83d1bb9a275205e, type: 3}
    - {fileID: 21300030, guid: df401aa84da4b8e4a83d1bb9a275205e, type: 3}
    - {fileID: 21300032, guid: df401aa84da4b8e4a83d1bb9a275205e, type: 3}
    - {fileID: 21300034, guid: df401aa84da4b8e4a83d1bb9a275205e, type: 3}
  m_AnimationClipSettings:
    serializedVersion: 2
    m_AdditiveReferencePoseClip: {fileID: 0}
    m_AdditiveReferencePoseTime: 0
    m_StartTime: 0
    m_StopTime: 0.8333333
    m_OrientationOffsetY: 0
    m_Level: 0
    m_CycleOffset: 0
    m_HasAdditiveReferencePose: 0
    m_LoopTime: 1
    m_LoopBlend: 0
    m_LoopBlendOrientation: 0
    m_LoopBlendPositionY: 0
    m_LoopBlendPositionXZ: 0
    m_KeepOriginalOrientation: 0
    m_KeepOriginalPositionY: 1
    m_KeepOriginalPositionXZ: 0
    m_HeightFromFeet: 0
    m_Mirror: 0
  m_EditorCurves: []
  m_EulerEditorCurves: []
  m_HasGenericRootTransform: 0
  m_HasMotionFloatCurves: 0
  m_Events: []
